build/dump.vcd
$date
	Fri Sep 20 14:35:09 2024
$end
$version
	Icarus Verilog
$end
$timescale
	1s
$end
$scope module async_fifo_tb $end
$var wire 1 ! wr_full $end
$var wire 1 " rd_empty $end
$var wire 12 # rd_data [11:0] $end
$var parameter 32 $ ADDR_WIDTH $end
$var parameter 32 % DATA_WIDTH $end
$var reg 1 & fastclk $end
$var reg 1 ' slowclk $end
$var reg 12 ( wr_data [11:0] $end
$scope module async_fifo_u1 $end
$var wire 1 ' rd_clk $end
$var wire 1 ) rd_en $end
$var wire 1 & wr_clk $end
$var wire 12 * wr_data [11:0] $end
$var wire 1 + wr_en $end
$var wire 1 , wr_full_next $end
$var wire 4 - wr_ptr_gray_next [3:0] $end
$var wire 4 . wr_ptr_bin_next [3:0] $end
$var wire 4 / rd_ptr_gray_next [3:0] $end
$var wire 4 0 rd_ptr_bin_next [3:0] $end
$var wire 1 1 rd_empty_next $end
$var wire 12 2 rd_data [11:0] $end
$var parameter 32 3 ADDR_WIDTH $end
$var parameter 32 4 DATA_WIDTH $end
$var reg 1 " rd_empty $end
$var reg 4 5 rd_ptr_bin [3:0] $end
$var reg 4 6 rd_ptr_gray [3:0] $end
$var reg 4 7 rd_ptr_sync1 [3:0] $end
$var reg 4 8 rd_ptr_sync2 [3:0] $end
$var reg 1 ! wr_full $end
$var reg 4 9 wr_ptr_bin [3:0] $end
$var reg 4 : wr_ptr_gray [3:0] $end
$var reg 4 ; wr_ptr_sync1 [3:0] $end
$var reg 4 < wr_ptr_sync2 [3:0] $end
$scope module bin_to_gray_u1 $end
$var wire 4 = bin_num [3:0] $end
$var parameter 33 > WIDTH $end
$var reg 4 ? gray_num [3:0] $end
$var integer 32 @ i [31:0] $end
$upscope $end
$scope module bin_to_gray_u2 $end
$var wire 4 A bin_num [3:0] $end
$var parameter 33 B WIDTH $end
$var reg 4 C gray_num [3:0] $end
$var integer 32 D i [31:0] $end
$upscope $end
$scope module sdp_2clk_bram_u1 $end
$var wire 3 E rd_addr [2:0] $end
$var wire 1 ' rd_clk $end
$var wire 3 F wr_addr [2:0] $end
$var wire 1 & wr_clk $end
$var wire 12 G wr_data [11:0] $end
$var wire 1 H wr_en $end
$var parameter 32 I ADDR_WIDTH $end
$var parameter 32 J DATA_WIDTH $end
$var parameter 32 K RAM_DEPTH $end
$var reg 12 L rd_data [11:0] $end
$upscope $end
$upscope $end
$upscope $end
$enddefinitions $end
$comment Show the parameter values. $end
$dumpall
b1000 K
b1100 J
b11 I
b100 B
b100 >
b1100 4
b11 3
b1100 %
b11 $
$end
#0
$dumpvars
bx L
1H
b0 G
b0 F
b0 E
b11 D
b1 C
b1 A
b11 @
b0 ?
b0 =
b0 <
b0 ;
b0 :
b0 9
b0 8
b0 7
b0 6
b0 5
bx 2
11
b0 0
b0 /
b1 .
b1 -
0,
1+
b0 *
0)
b0 (
0'
0&
bx #
1"
0!
$end
#5
b11 -
b11 C
b11 D
b1 F
b1 :
b10 .
b10 A
b1 9
b1 (
b1 *
b1 G
1&
#10
0&
#15
b10 -
b10 C
b11 D
b10 F
b10 (
b10 *
b10 G
b11 :
b11 .
b11 A
b10 9
1&
#20
0&
#23
b0 #
b0 2
b0 L
b11 ;
1'
#25
b110 -
b110 C
b11 D
b11 F
b10 :
b100 .
b100 A
b11 9
b11 (
b11 *
b11 G
1&
#30
0&
#35
b111 -
b111 C
b11 D
b100 F
b100 (
b100 *
b100 G
b110 :
b101 .
b101 A
b100 9
1&
#40
0&
#45
b101 -
b101 C
b11 D
b101 F
b111 :
b110 .
b110 A
b101 9
b101 (
b101 *
b101 G
1&
#46
0'
#50
0&
#55
b100 -
b100 C
b11 D
b110 F
b110 (
b110 *
b110 G
b101 :
b111 .
b111 A
b110 9
1&
#60
0&
#65
1,
b11 D
b1100 -
b1100 C
b111 F
b100 :
b1000 .
b1000 A
b111 9
b111 (
b111 *
b111 G
1&
#69
b100 ;
01
b11 <
1'
#70
0&
#75
1,
0H
b1100 -
b1100 C
b11 D
b0 F
b1000 (
b1000 *
b1000 G
0+
1!
b1100 :
b1000 .
b1000 A
b1000 9
1&
#80
0&
#85
1&
#90
0&
#92
0'
#95
1&
#100
0&
#105
1&
#110
0&
#115
b1 /
b1 ?
b11 @
b1 0
b1 =
b1100 ;
b100 <
1)
0"
1&
1'
#120
0&
#125
1&
#130
0&
#135
1&
#138
0'
#140
0&
#145
1&
#150
0&
#155
1&
#160
0&
#161
b11 /
b11 ?
b11 @
b1 E
b1100 <
b1 6
b10 0
b10 =
b1 5
1'
#165
b1 7
1&
#170
0&
#175
0,
b1 8
1&
#180
0&
#184
0'
#185
1,
b1101 -
b1101 C
b11 D
b1001 .
b1001 A
1H
1+
0!
1&
#190
0&
#195
1,
0H
b1101 -
b1101 C
b11 D
b1 F
b1001 (
b1001 *
b1001 G
0+
1!
b1101 :
b1001 .
b1001 A
b1001 9
1&
#200
0&
#205
1&
#207
b10 /
b10 ?
b11 @
b10 E
b1 #
b1 2
b1 L
b11 6
b11 0
b11 =
b10 5
b1101 ;
1'
#210
0&
#215
b11 7
1&
#220
0&
#225
0,
b11 8
1&
#230
0&
0'
#235
1,
b1111 -
b1111 C
b11 D
b1010 .
b1010 A
1H
1+
0!
1&
#240
0&
#245
b11 D
b10 F
0H
b1111 :
b1010 .
b1010 A
b1010 9
0+
1!
b1010 (
b1010 *
b1010 G
1&
#250
0&
#253
b110 /
b110 ?
b11 @
b11 E
b1111 ;
b1101 <
b10 6
b100 0
b100 =
b11 5
b10 #
b10 2
b10 L
1'
#255
b10 7
1&
#260
0&
#265
0,
b10 8
1&
#270
0&
#275
1,
b1110 -
b1110 C
b11 D
b1011 .
b1011 A
1H
1+
0!
1&
#276
0'
#280
0&
#285
b11 D
b11 F
0H
b1110 :
b1011 .
b1011 A
b1011 9
0+
1!
b1011 (
b1011 *
b1011 G
1&
#290
0&
#295
1&
#299
b111 /
b111 ?
b11 @
b100 E
b11 #
b11 2
b11 L
b110 6
b101 0
b101 =
b100 5
b1110 ;
b1111 <
1'
#300
0&
#305
b110 7
1&
#310
0&
#315
0,
b110 8
1&
#320
0&
#322
0'
#325
1,
b1010 -
b1010 C
b11 D
b1100 .
b1100 A
1H
1+
0!
1&
#330
0&
#335
1,
0H
b1010 -
b1010 C
b11 D
b100 F
b1100 (
b1100 *
b1100 G
0+
1!
b1010 :
b1100 .
b1100 A
b1100 9
1&
#340
0&
#345
b101 /
b101 ?
b11 @
b101 E
b1010 ;
b1110 <
b111 6
b110 0
b110 =
b101 5
b100 #
b100 2
b100 L
1&
1'
#350
0&
#355
b111 7
1&
#360
0&
#365
0,
b111 8
1&
#368
0'
#370
0&
#375
1,
b1011 -
b1011 C
b11 D
b1101 .
b1101 A
1H
1+
0!
1&
#380
0&
#385
b11 D
b101 F
0H
b1011 :
b1101 .
b1101 A
b1101 9
0+
1!
b1101 (
b1101 *
b1101 G
1&
#390
0&
#391
b100 /
b100 ?
b11 @
b110 E
b101 #
b101 2
b101 L
b101 6
b111 0
b111 =
b110 5
b1011 ;
b1010 <
1'
#395
b101 7
1&
#400
0&
#405
0,
b101 8
1&
#410
0&
#414
0'
#415
1,
b1001 -
b1001 C
b11 D
b1110 .
b1110 A
1H
1+
0!
1&
#420
0&
#425
b11 D
b110 F
0H
b1001 :
b1110 .
b1110 A
b1110 9
0+
1!
b1110 (
b1110 *
b1110 G
1&
#430
0&
#435
1&
#437
b11 @
b1100 /
b1100 ?
b111 E
b1001 ;
b1011 <
b100 6
b1000 0
b1000 =
b111 5
b110 #
b110 2
b110 L
1'
#440
0&
#445
b100 7
1&
#450
0&
#455
0,
b100 8
1&
#460
0&
0'
#465
1,
b1000 -
b1000 C
b11 D
b1111 .
b1111 A
1H
1+
0!
1&
#470
0&
#475
1,
0H
b11 D
b1000 -
b1000 C
b111 F
b1111 (
b1111 *
b1111 G
0+
1!
b1000 :
b1111 .
b1111 A
b1111 9
1&
#480
0&
#483
b1101 /
b1101 ?
b11 @
b0 E
b111 #
b111 2
b111 L
b1100 6
b1001 0
b1001 =
b1000 5
b1000 ;
b1001 <
1'
#485
b1100 7
1&
#490
0&
#495
0,
b1100 8
1&
#500
0&
#505
1,
b11 D
b0 -
b0 C
b0 .
b0 A
1H
1+
0!
1&
#506
0'
#510
0&
#515
1,
0H
b0 -
b0 C
b11 D
b0 F
b10000 (
b10000 *
b10000 G
0+
1!
b0 :
b0 .
b0 A
b0 9
1&
#520
0&
#525
1&
#529
b1111 /
b1111 ?
b11 @
b1 E
b0 ;
b1000 <
b1101 6
b1010 0
b1010 =
b1001 5
b1000 #
b1000 2
b1000 L
1'
#530
0&
#535
b1101 7
1&
#540
0&
#545
0,
b1101 8
1&
#550
0&
#552
0'
#555
1,
b1 -
b1 C
b11 D
b1 .
b1 A
1H
1+
0!
1&
#560
0&
#565
b11 D
b1 F
0H
b1 :
b1 .
b1 A
b1 9
0+
1!
b10001 (
b10001 *
b10001 G
1&
#570
0&
#575
b1110 /
b1110 ?
b11 @
b10 E
b1001 #
b1001 2
b1001 L
b1111 6
b1011 0
b1011 =
b1010 5
b1 ;
b0 <
1&
1'
#580
0&
#585
b1111 7
1&
#590
0&
#595
0,
b1111 8
1&
#598
0'
#600
0&
#605
1,
b11 -
b11 C
b11 D
b10 .
b10 A
1H
1+
0!
1&
#610
0&
#615
1,
0H
b11 -
b11 C
b11 D
b10 F
b10010 (
b10010 *
b10010 G
0+
1!
b11 :
b10 .
b10 A
b10 9
1&
#620
0&
#621
b1010 /
b1010 ?
b11 @
b11 E
b11 ;
b1 <
b1110 6
b1100 0
b1100 =
b1011 5
b1010 #
b1010 2
b1010 L
1'
#625
b1110 7
1&
#630
0&
#635
0,
b1110 8
1&
#640
0&
#644
0'
#645
1,
b10 -
b10 C
b11 D
b11 .
b11 A
1H
1+
0!
1&
#650
0&
#655
1,
0H
b10 -
b10 C
b11 D
b11 F
b10011 (
b10011 *
b10011 G
0+
1!
b10 :
b11 .
b11 A
b11 9
1&
#660
0&
#665
1&
#667
b1011 /
b1011 ?
b11 @
b100 E
b1011 #
b1011 2
b1011 L
b1010 6
b1101 0
b1101 =
b1100 5
b10 ;
b11 <
1'
#670
0&
#675
b1010 7
1&
#680
0&
#685
0,
b1010 8
1&
#690
0&
0'
#695
1,
b110 -
b110 C
b11 D
b100 .
b100 A
1H
1+
0!
1&
#700
0&
#705
b11 D
b100 F
0H
b110 :
b100 .
b100 A
b100 9
0+
1!
b10100 (
b10100 *
b10100 G
1&
#710
0&
#713
b1001 /
b1001 ?
b11 @
b101 E
b110 ;
b10 <
b1011 6
b1110 0
b1110 =
b1101 5
b1100 #
b1100 2
b1100 L
1'
#715
b1011 7
1&
#720
0&
#725
0,
b1011 8
1&
#730
0&
#735
1,
b111 -
b111 C
b11 D
b101 .
b101 A
1H
1+
0!
1&
#736
0'
#740
0&
#745
b11 D
b101 F
0H
b111 :
b101 .
b101 A
b101 9
0+
1!
b10101 (
b10101 *
b10101 G
1&
#750
0&
#755
1&
#759
b1000 /
b1000 ?
b11 @
b110 E
b1101 #
b1101 2
b1101 L
b1001 6
b1111 0
b1111 =
b1110 5
b111 ;
b110 <
1'
#760
0&
#765
b1001 7
1&
#770
0&
#775
0,
b1001 8
1&
#780
0&
#782
0'
#785
1,
b101 -
b101 C
b11 D
b110 .
b110 A
1H
1+
0!
1&
#790
0&
#795
1,
0H
b101 -
b101 C
b11 D
b110 F
b10110 (
b10110 *
b10110 G
0+
1!
b101 :
b110 .
b110 A
b110 9
1&
#800
0&
#805
b11 @
b0 /
b0 ?
b111 E
b101 ;
b111 <
b1000 6
b0 0
b0 =
b1111 5
b1110 #
b1110 2
b1110 L
1&
1'
#810
0&
#815
b1000 7
1&
#820
0&
#825
0,
b1000 8
1&
#828
0'
#830
0&
#835
1,
b100 -
b100 C
b11 D
b111 .
b111 A
1H
1+
0!
1&
#840
0&
#845
b11 D
b111 F
0H
b100 :
b111 .
b111 A
b111 9
0+
1!
b10111 (
b10111 *
b10111 G
1&
#850
0&
#851
b1 /
b1 ?
b11 @
b0 E
b1111 #
b1111 2
b1111 L
b0 6
b1 0
b1 =
b0 5
b100 ;
b101 <
1'
#855
b0 7
1&
#860
0&
#865
0,
b0 8
1&
#870
0&
#874
0'
#875
1,
b11 D
b1100 -
b1100 C
b1000 .
b1000 A
1H
1+
0!
1&
#880
0&
#885
b11 D
b0 F
0H
b1100 :
b1000 .
b1000 A
b1000 9
0+
1!
b11000 (
b11000 *
b11000 G
1&
#890
0&
#895
1&
#897
b11 /
b11 ?
b11 @
b1 E
b1100 ;
b100 <
b1 6
b10 0
b10 =
b1 5
b10000 #
b10000 2
b10000 L
1'
#900
0&
#905
b1 7
1&
#910
0&
#915
0,
b1 8
1&
#920
0&
0'
#925
1,
b1101 -
b1101 C
b11 D
b1001 .
b1001 A
1H
1+
0!
1&
#930
0&
#935
1,
0H
b1101 -
b1101 C
b11 D
b1 F
b11001 (
b11001 *
b11001 G
0+
1!
b1101 :
b1001 .
b1001 A
b1001 9
1&
#940
0&
#943
b10 /
b10 ?
b11 @
b10 E
b10001 #
b10001 2
b10001 L
b11 6
b11 0
b11 =
b10 5
b1101 ;
b1100 <
1'
#945
b11 7
1&
#950
0&
#955
0,
b11 8
1&
#960
0&
#965
1,
b1111 -
b1111 C
b11 D
b1010 .
b1010 A
1H
1+
0!
1&
#966
0'
#970
0&
#975
1,
0H
b1111 -
b1111 C
b11 D
b10 F
b11010 (
b11010 *
b11010 G
0+
1!
b1111 :
b1010 .
b1010 A
b1010 9
1&
#980
0&
#985
1&
#989
b110 /
b110 ?
b11 @
b11 E
b1111 ;
b1101 <
b10 6
b100 0
b100 =
b11 5
b10010 #
b10010 2
b10010 L
1'
#990
0&
#995
b10 7
1&
#1000
0&
#1005
0,
b10 8
1&
#1010
0&
#1012
0'
#1015
1,
b1110 -
b1110 C
b11 D
b1011 .
b1011 A
1H
1+
0!
1&
#1020
0&
#1025
b11 D
b11 F
0H
b1110 :
b1011 .
b1011 A
b1011 9
0+
1!
b11011 (
b11011 *
b11011 G
1&
#1030
0&
#1035
b111 /
b111 ?
b11 @
b100 E
b10011 #
b10011 2
b10011 L
b110 6
b101 0
b101 =
b100 5
b1110 ;
b1111 <
1&
1'
#1040
0&
#1045
b110 7
1&
#1050
0&
#1055
0,
b110 8
1&
#1058
0'
#1060
0&
#1065
1,
b1010 -
b1010 C
b11 D
b1100 .
b1100 A
1H
1+
0!
1&
#1070
0&
#1075
1,
0H
b1010 -
b1010 C
b11 D
b100 F
b11100 (
b11100 *
b11100 G
0+
1!
b1010 :
b1100 .
b1100 A
b1100 9
1&
#1080
0&
#1081
b101 /
b101 ?
b11 @
b101 E
b1010 ;
b1110 <
b111 6
b110 0
b110 =
b101 5
b10100 #
b10100 2
b10100 L
1'
#1085
b111 7
1&
#1090
0&
#1095
0,
b111 8
1&
#1100
0&
#1104
0'
#1105
1,
b1011 -
b1011 C
b11 D
b1101 .
b1101 A
1H
1+
0!
1&
#1110
0&
#1115
1,
0H
b1011 -
b1011 C
b11 D
b101 F
b11101 (
b11101 *
b11101 G
0+
1!
b1011 :
b1101 .
b1101 A
b1101 9
1&
#1120
0&
#1125
1&
#1127
b100 /
b100 ?
b11 @
b110 E
b10101 #
b10101 2
b10101 L
b101 6
b111 0
b111 =
b110 5
b1011 ;
b1010 <
1'
#1130
0&
#1135
b101 7
1&
#1140
0&
#1145
0,
b101 8
1&
#1150
0&
0'
#1155
1,
b1001 -
b1001 C
b11 D
b1110 .
b1110 A
1H
1+
0!
1&
#1160
0&
#1165
b11 D
b110 F
0H
b1001 :
b1110 .
b1110 A
b1110 9
0+
1!
b11110 (
b11110 *
b11110 G
1&
#1170
0&
#1173
b11 @
b1100 /
b1100 ?
b111 E
b1001 ;
b1011 <
b100 6
b1000 0
b1000 =
b111 5
b10110 #
b10110 2
b10110 L
1'
#1175
b100 7
1&
#1180
0&
#1185
0,
b100 8
1&
#1190
0&
#1195
1,
b1000 -
b1000 C
b11 D
b1111 .
b1111 A
1H
1+
0!
1&
#1196
0'
#1200
0&
#1205
b11 D
b111 F
0H
b1000 :
b1111 .
b1111 A
b1111 9
0+
1!
b11111 (
b11111 *
b11111 G
1&
#1210
0&
#1215
1&
#1219
b1101 /
b1101 ?
b11 @
b0 E
b10111 #
b10111 2
b10111 L
b1100 6
b1001 0
b1001 =
b1000 5
b1000 ;
b1001 <
1'
#1220
0&
#1225
b1100 7
1&
#1230
0&
#1235
0,
b1100 8
1&
#1240
0&
#1242
0'
#1245
1,
b11 D
b0 -
b0 C
b0 .
b0 A
1H
1+
0!
1&
#1250
0&
#1255
1,
0H
b0 -
b0 C
b11 D
b0 F
b100000 (
b100000 *
b100000 G
0+
1!
b0 :
b0 .
b0 A
b0 9
1&
#1260
0&
#1265
b1111 /
b1111 ?
b11 @
b1 E
b0 ;
b1000 <
b1101 6
b1010 0
b1010 =
b1001 5
b11000 #
b11000 2
b11000 L
1&
1'
#1270
0&
#1275
b1101 7
1&
#1280
0&
#1285
0,
b1101 8
1&
#1288
0'
#1290
0&
#1295
1,
b1 -
b1 C
b11 D
b1 .
b1 A
1H
1+
0!
1&
#1300
0&
#1305
b11 D
b1 F
0H
b1 :
b1 .
b1 A
b1 9
0+
1!
b100001 (
b100001 *
b100001 G
1&
#1310
0&
#1311
b1110 /
b1110 ?
b11 @
b10 E
b11001 #
b11001 2
b11001 L
b1111 6
b1011 0
b1011 =
b1010 5
b1 ;
b0 <
1'
#1315
b1111 7
1&
#1320
0&
#1325
0,
b1111 8
1&
#1330
0&
#1334
0'
#1335
1,
b11 -
b11 C
b11 D
b10 .
b10 A
1H
1+
0!
1&
#1340
0&
#1345
b11 D
b10 F
0H
b11 :
b10 .
b10 A
b10 9
0+
1!
b100010 (
b100010 *
b100010 G
1&
#1350
0&
#1355
1&
#1357
b1010 /
b1010 ?
b11 @
b11 E
b11 ;
b1 <
b1110 6
b1100 0
b1100 =
b1011 5
b11010 #
b11010 2
b11010 L
1'
#1360
0&
#1365
b1110 7
1&
#1370
0&
#1375
0,
b1110 8
1&
#1380
0&
0'
#1385
1,
b10 -
b10 C
b11 D
b11 .
b11 A
1H
1+
0!
1&
#1390
0&
#1395
1,
0H
b10 -
b10 C
b11 D
b11 F
b100011 (
b100011 *
b100011 G
0+
1!
b10 :
b11 .
b11 A
b11 9
1&
#1400
0&
#1403
b1011 /
b1011 ?
b11 @
b100 E
b11011 #
b11011 2
b11011 L
b1010 6
b1101 0
b1101 =
b1100 5
b10 ;
b11 <
1'
#1405
b1010 7
1&
#1410
0&
#1415
0,
b1010 8
1&
#1420
0&
#1425
1,
b110 -
b110 C
b11 D
b100 .
b100 A
1H
1+
0!
1&
#1426
0'
#1430
0&
#1435
1,
0H
b110 -
b110 C
b11 D
b100 F
b100100 (
b100100 *
b100100 G
0+
1!
b110 :
b100 .
b100 A
b100 9
1&
#1440
0&
#1445
1&
#1449
b1001 /
b1001 ?
b11 @
b101 E
b110 ;
b10 <
b1011 6
b1110 0
b1110 =
b1101 5
b11100 #
b11100 2
b11100 L
1'
#1450
0&
#1455
b1011 7
1&
#1460
0&
#1465
0,
b1011 8
1&
#1470
0&
#1472
0'
#1475
1,
b111 -
b111 C
b11 D
b101 .
b101 A
1H
1+
0!
1&
#1480
0&
#1485
b11 D
b101 F
0H
b111 :
b101 .
b101 A
b101 9
0+
1!
b100101 (
b100101 *
b100101 G
1&
#1490
0&
#1495
b1000 /
b1000 ?
b11 @
b110 E
b11101 #
b11101 2
b11101 L
b1001 6
b1111 0
b1111 =
b1110 5
b111 ;
b110 <
1&
1'
#1500
0&
#1505
b1001 7
1&
#1510
0&
#1515
0,
b1001 8
1&
#1518
0'
#1520
0&
#1525
1,
b101 -
b101 C
b11 D
b110 .
b110 A
1H
1+
0!
1&
#1530
0&
#1535
1,
0H
b101 -
b101 C
b11 D
b110 F
b100110 (
b100110 *
b100110 G
0+
1!
b101 :
b110 .
b110 A
b110 9
1&
#1540
0&
#1541
b11 @
b0 /
b0 ?
b111 E
b101 ;
b111 <
b1000 6
b0 0
b0 =
b1111 5
b11110 #
b11110 2
b11110 L
1'
#1545
b1000 7
1&
#1550
0&
#1555
0,
b1000 8
1&
#1560
0&
#1564
0'
#1565
1,
b100 -
b100 C
b11 D
b111 .
b111 A
1H
1+
0!
1&
#1570
0&
#1575
1,
0H
b11 D
b100 -
b100 C
b111 F
b100111 (
b100111 *
b100111 G
0+
1!
b100 :
b111 .
b111 A
b111 9
1&
#1580
0&
#1585
1&
#1587
b1 /
b1 ?
b11 @
b0 E
b11111 #
b11111 2
b11111 L
b0 6
b1 0
b1 =
b0 5
b100 ;
b101 <
1'
#1590
0&
#1595
b0 7
1&
#1600
0&
#1605
0,
b0 8
1&
#1610
0&
0'
#1615
1,
b11 D
b1100 -
b1100 C
b1000 .
b1000 A
1H
1+
0!
1&
#1620
0&
#1625
b11 D
b0 F
0H
b1100 :
b1000 .
b1000 A
b1000 9
0+
1!
b101000 (
b101000 *
b101000 G
1&
#1630
0&
#1633
b11 /
b11 ?
b11 @
b1 E
b1100 ;
b100 <
b1 6
b10 0
b10 =
b1 5
b100000 #
b100000 2
b100000 L
1'
#1635
b1 7
1&
#1640
0&
#1645
0,
b1 8
1&
#1650
0&
#1655
1,
b1101 -
b1101 C
b11 D
b1001 .
b1001 A
1H
1+
0!
1&
#1656
0'
#1660
0&
#1665
b11 D
b1 F
0H
b1101 :
b1001 .
b1001 A
b1001 9
0+
1!
b101001 (
b101001 *
b101001 G
1&
#1670
0&
#1675
1&
#1679
b10 /
b10 ?
b11 @
b10 E
b100001 #
b100001 2
b100001 L
b11 6
b11 0
b11 =
b10 5
b1101 ;
b1100 <
1'
#1680
0&
#1685
b11 7
1&
#1690
0&
#1695
0,
b11 8
1&
#1700
0&
#1702
0'
#1705
1,
b1111 -
b1111 C
b11 D
b1010 .
b1010 A
1H
1+
0!
1&
#1710
0&
#1715
1,
0H
b1111 -
b1111 C
b11 D
b10 F
b101010 (
b101010 *
b101010 G
0+
1!
b1111 :
b1010 .
b1010 A
b1010 9
1&
#1720
0&
#1725
b110 /
b110 ?
b11 @
b11 E
b1111 ;
b1101 <
b10 6
b100 0
b100 =
b11 5
b100010 #
b100010 2
b100010 L
1&
1'
#1730
0&
#1735
b10 7
1&
#1740
0&
#1745
0,
b10 8
1&
#1748
0'
#1750
0&
#1755
1,
b1110 -
b1110 C
b11 D
b1011 .
b1011 A
1H
1+
0!
1&
#1760
0&
#1765
b11 D
b11 F
0H
b1110 :
b1011 .
b1011 A
b1011 9
0+
1!
b101011 (
b101011 *
b101011 G
1&
#1770
0&
#1771
b111 /
b111 ?
b11 @
b100 E
b100011 #
b100011 2
b100011 L
b110 6
b101 0
b101 =
b100 5
b1110 ;
b1111 <
1'
#1775
b110 7
1&
#1780
0&
#1785
0,
b110 8
1&
#1790
0&
#1794
0'
#1795
1,
b1010 -
b1010 C
b11 D
b1100 .
b1100 A
1H
1+
0!
1&
#1800
0&
#1805
b11 D
b100 F
0H
b1010 :
b1100 .
b1100 A
b1100 9
0+
1!
b101100 (
b101100 *
b101100 G
1&
#1810
0&
#1815
1&
#1817
b101 /
b101 ?
b11 @
b101 E
b1010 ;
b1110 <
b111 6
b110 0
b110 =
b101 5
b100100 #
b100100 2
b100100 L
1'
#1820
0&
#1825
b111 7
1&
#1830
0&
#1835
0,
b111 8
1&
#1840
0&
0'
#1845
1,
b1011 -
b1011 C
b11 D
b1101 .
b1101 A
1H
1+
0!
1&
#1850
0&
#1855
1,
0H
b1011 -
b1011 C
b11 D
b101 F
b101101 (
b101101 *
b101101 G
0+
1!
b1011 :
b1101 .
b1101 A
b1101 9
1&
#1860
0&
#1863
b100 /
b100 ?
b11 @
b110 E
b100101 #
b100101 2
b100101 L
b101 6
b111 0
b111 =
b110 5
b1011 ;
b1010 <
1'
#1865
b101 7
1&
#1870
0&
#1875
0,
b101 8
1&
#1880
0&
#1885
1,
b1001 -
b1001 C
b11 D
b1110 .
b1110 A
1H
1+
0!
1&
#1886
0'
#1890
0&
#1895
1,
0H
b1001 -
b1001 C
b11 D
b110 F
b101110 (
b101110 *
b101110 G
0+
1!
b1001 :
b1110 .
b1110 A
b1110 9
1&
#1900
0&
#1905
1&
#1909
b11 @
b1100 /
b1100 ?
b111 E
b1001 ;
b1011 <
b100 6
b1000 0
b1000 =
b111 5
b100110 #
b100110 2
b100110 L
1'
#1910
0&
#1915
b100 7
1&
#1920
0&
#1925
0,
b100 8
1&
#1930
0&
#1932
0'
#1935
1,
b1000 -
b1000 C
b11 D
b1111 .
b1111 A
1H
1+
0!
1&
#1940
0&
#1945
b11 D
b111 F
0H
b1000 :
b1111 .
b1111 A
b1111 9
0+
1!
b101111 (
b101111 *
b101111 G
1&
#1950
0&
#1955
b1101 /
b1101 ?
b11 @
b0 E
b100111 #
b100111 2
b100111 L
b1100 6
b1001 0
b1001 =
b1000 5
b1000 ;
b1001 <
1&
1'
#1960
0&
#1965
b1100 7
1&
#1970
0&
#1975
0,
b1100 8
1&
#1978
0'
#1980
0&
#1985
1,
b11 D
b0 -
b0 C
b0 .
b0 A
1H
1+
0!
1&
#1990
0&
#1995
1,
0H
b0 -
b0 C
b11 D
b0 F
b110000 (
b110000 *
b110000 G
0+
1!
b0 :
b0 .
b0 A
b0 9
1&
#2000
0&
#2001
b1111 /
b1111 ?
b11 @
b1 E
b0 ;
b1000 <
b1101 6
b1010 0
b1010 =
b1001 5
b101000 #
b101000 2
b101000 L
1'
#2005
b1101 7
1&
#2010
0&
#2015
0,
b1101 8
1&
#2020
0&
#2024
0'
#2025
1,
b1 -
b1 C
b11 D
b1 .
b1 A
1H
1+
0!
1&
#2030
0&
#2035
1,
0H
b1 -
b1 C
b11 D
b1 F
b110001 (
b110001 *
b110001 G
0+
1!
b1 :
b1 .
b1 A
b1 9
1&
#2040
0&
#2045
1&
#2047
b1110 /
b1110 ?
b11 @
b10 E
b101001 #
b101001 2
b101001 L
b1111 6
b1011 0
b1011 =
b1010 5
b1 ;
b0 <
1'
#2050
0&
#2055
b1111 7
1&
#2060
0&
#2065
0,
b1111 8
1&
#2070
0&
0'
#2075
1,
b11 -
b11 C
b11 D
b10 .
b10 A
1H
1+
0!
1&
#2080
0&
#2085
b11 D
b10 F
0H
b11 :
b10 .
b10 A
b10 9
0+
1!
b110010 (
b110010 *
b110010 G
1&
#2090
0&
#2093
b1010 /
b1010 ?
b11 @
b11 E
b11 ;
b1 <
b1110 6
b1100 0
b1100 =
b1011 5
b101010 #
b101010 2
b101010 L
1'
#2095
b1110 7
1&
#2100
0&
#2105
0,
b1110 8
1&
#2110
0&
#2115
1,
b10 -
b10 C
b11 D
b11 .
b11 A
1H
1+
0!
1&
#2116
0'
#2120
0&
#2125
b11 D
b11 F
0H
b10 :
b11 .
b11 A
b11 9
0+
1!
b110011 (
b110011 *
b110011 G
1&
#2130
0&
#2135
1&
#2139
b1011 /
b1011 ?
b11 @
b100 E
b101011 #
b101011 2
b101011 L
b1010 6
b1101 0
b1101 =
b1100 5
b10 ;
b11 <
1'
#2140
0&
#2145
b1010 7
1&
#2150
0&
#2155
0,
b1010 8
1&
#2160
0&
#2162
0'
#2165
1,
b110 -
b110 C
b11 D
b100 .
b100 A
1H
1+
0!
1&
#2170
0&
#2175
1,
0H
b110 -
b110 C
b11 D
b100 F
b110100 (
b110100 *
b110100 G
0+
1!
b110 :
b100 .
b100 A
b100 9
1&
#2180
0&
#2185
b1001 /
b1001 ?
b11 @
b101 E
b110 ;
b10 <
b1011 6
b1110 0
b1110 =
b1101 5
b101100 #
b101100 2
b101100 L
1&
1'
#2190
0&
#2195
b1011 7
1&
#2200
0&
#2205
0,
b1011 8
1&
#2208
0'
#2210
0&
#2215
1,
b111 -
b111 C
b11 D
b101 .
b101 A
1H
1+
0!
1&
#2220
0&
#2225
b11 D
b101 F
0H
b111 :
b101 .
b101 A
b101 9
0+
1!
b110101 (
b110101 *
b110101 G
1&
#2230
0&
#2231
b1000 /
b1000 ?
b11 @
b110 E
b101101 #
b101101 2
b101101 L
b1001 6
b1111 0
b1111 =
b1110 5
b111 ;
b110 <
1'
#2235
b1001 7
1&
#2240
0&
#2245
0,
b1001 8
1&
#2250
0&
#2254
0'
#2255
1,
b101 -
b101 C
b11 D
b110 .
b110 A
1H
1+
0!
1&
#2260
0&
#2265
b11 D
b110 F
0H
b101 :
b110 .
b110 A
b110 9
0+
1!
b110110 (
b110110 *
b110110 G
1&
#2270
0&
#2275
1&
#2277
b11 @
b0 /
b0 ?
b111 E
b101 ;
b111 <
b1000 6
b0 0
b0 =
b1111 5
b101110 #
b101110 2
b101110 L
1'
#2280
0&
#2285
b1000 7
1&
#2290
0&
#2295
0,
b1000 8
1&
#2300
0&
0'
#2305
1,
b100 -
b100 C
b11 D
b111 .
b111 A
1H
1+
0!
1&
#2310
0&
#2315
1,
0H
b11 D
b100 -
b100 C
b111 F
b110111 (
b110111 *
b110111 G
0+
1!
b100 :
b111 .
b111 A
b111 9
1&
#2320
0&
#2323
b1 /
b1 ?
b11 @
b0 E
b101111 #
b101111 2
b101111 L
b0 6
b1 0
b1 =
b0 5
b100 ;
b101 <
1'
#2325
b0 7
1&
#2330
0&
#2335
0,
b0 8
1&
#2340
0&
#2345
1,
b11 D
b1100 -
b1100 C
b1000 .
b1000 A
1H
1+
0!
1&
#2346
0'
#2350
0&
#2355
1,
0H
b1100 -
b1100 C
b11 D
b0 F
b111000 (
b111000 *
b111000 G
0+
1!
b1100 :
b1000 .
b1000 A
b1000 9
1&
#2360
0&
#2365
1&
